simulation/qsim/unidade2.msim.vcd
$comment
	File created using the following command:
		vcd file unidade2.msim.vcd -direction
$end
$date
	Wed Jul 02 11:35:47 2025
$end
$version
	ModelSim Version 10.1d
$end
$timescale
	1ps
$end
$scope module Principal_vlg_vec_tst $end
$var reg 1 ! CLK $end
$var wire 1 " HEX0 [6] $end
$var wire 1 # HEX0 [5] $end
$var wire 1 $ HEX0 [4] $end
$var wire 1 % HEX0 [3] $end
$var wire 1 & HEX0 [2] $end
$var wire 1 ' HEX0 [1] $end
$var wire 1 ( HEX0 [0] $end
$var wire 1 ) HEX1 [6] $end
$var wire 1 * HEX1 [5] $end
$var wire 1 + HEX1 [4] $end
$var wire 1 , HEX1 [3] $end
$var wire 1 - HEX1 [2] $end
$var wire 1 . HEX1 [1] $end
$var wire 1 / HEX1 [0] $end
$var wire 1 0 LEDS [9] $end
$var wire 1 1 LEDS [8] $end
$var wire 1 2 LEDS [7] $end
$var wire 1 3 LEDS [6] $end
$var wire 1 4 LEDS [5] $end
$var wire 1 5 LEDS [4] $end
$var wire 1 6 LEDS [3] $end
$var wire 1 7 LEDS [2] $end
$var wire 1 8 LEDS [1] $end
$var wire 1 9 LEDS [0] $end
$var wire 1 : sampler $end
$scope module i1 $end
$var wire 1 ; gnd $end
$var wire 1 < vcc $end
$var wire 1 = unknown $end
$var tri1 1 > devclrn $end
$var tri1 1 ? devpor $end
$var tri1 1 @ devoe $end
$var wire 1 A CLK~combout $end
$var wire 1 B i1|i0|Q_interno~0_combout $end
$var wire 1 C i1|i3|Q_interno~0_combout $end
$var wire 1 D i1|i3|Q_interno~regout $end
$var wire 1 E i1|i2|Q_interno~0_combout $end
$var wire 1 F i1|i2|Q_interno~regout $end
$var wire 1 G i1|clear~combout $end
$var wire 1 H i1|i0|Q_interno~regout $end
$var wire 1 I i1|i1|Q_interno~0_combout $end
$var wire 1 J i1|i1|Q_interno~regout $end
$var wire 1 K LEDS~28_combout $end
$var wire 1 L LEDS~29_combout $end
$var wire 1 M LEDS~30_combout $end
$var wire 1 N LEDS~31_combout $end
$var wire 1 O LEDS~32_combout $end
$var wire 1 P LEDS~33_combout $end
$var wire 1 Q LEDS~34_combout $end
$var wire 1 R LEDS~35_combout $end
$var wire 1 S LEDS~36_combout $end
$var wire 1 T LEDS~37_combout $end
$var wire 1 U dezena[3]~0_combout $end
$var wire 1 V dezena[3]~0clkctrl_outclk $end
$var wire 1 W unidade[3]~1_combout $end
$var wire 1 X unidade[0]~2_combout $end
$var wire 1 Y unidade[1]~0_combout $end
$var wire 1 Z dec_unidade|a~0_combout $end
$var wire 1 [ unidade[2]~3_combout $end
$var wire 1 \ dec_unidade|b~0_combout $end
$var wire 1 ] dec_unidade|c~0_combout $end
$var wire 1 ^ dec_unidade|d~0_combout $end
$var wire 1 _ dec_unidade|e~0_combout $end
$var wire 1 ` dec_unidade|f~0_combout $end
$var wire 1 a dec_unidade|g~0_combout $end
$var wire 1 b comb~0_combout $end
$var wire 1 c LessThan0~0_combout $end
$var wire 1 d unidade [3] $end
$var wire 1 e unidade [2] $end
$var wire 1 f unidade [1] $end
$var wire 1 g unidade [0] $end
$var wire 1 h dezena [3] $end
$var wire 1 i dezena [2] $end
$var wire 1 j dezena [1] $end
$var wire 1 k dezena [0] $end
$upscope $end
$upscope $end
$enddefinitions $end
#0
$dumpvars
0!
0(
x'
x&
x%
x$
x#
x"
x/
0.
0-
x,
x+
x*
1)
x9
x8
x7
x6
x5
x4
x3
x2
x1
x0
x:
0;
1<
x=
1>
1?
1@
0A
1B
xC
xD
xE
xF
0G
0H
xI
xJ
xK
xL
xM
xN
xO
xP
xQ
xR
xS
xT
xU
xV
xW
0X
xY
1Z
x[
x\
x]
x^
x_
x`
xa
xb
xc
0g
xf
xe
xd
xk
zj
zi
zh
$end
#15000
1!
1A
0:
#30000
0!
0A
1:
1H
1b
xX
0S
0Q
0O
0M
0K
xG
0B
xg
01
03
05
07
09
xZ
x(
#45000
1!
1A
0:
#60000
0!
0A
1:
0H
xb
0X
xS
xQ
xO
xM
xK
0G
1B
x1
x3
x5
x7
x9
#75000
1!
1A
0:
#90000
0!
0A
1:
1H
1b
xX
0S
0Q
0O
0M
0K
xG
0B
01
03
05
07
09
#105000
1!
1A
0:
#120000
0!
0A
1:
0H
xb
0X
xS
xQ
xO
xM
xK
0G
1B
x1
x3
x5
x7
x9
#135000
1!
1A
0:
#150000
0!
0A
1:
1H
1b
xX
0S
0Q
0O
0M
0K
xG
0B
01
03
05
07
09
#165000
1!
1A
0:
#180000
0!
0A
1:
0H
xb
0X
xS
xQ
xO
xM
xK
0G
1B
x1
x3
x5
x7
x9
#195000
1!
1A
0:
#210000
0!
0A
1:
1H
1b
xX
0S
0Q
0O
0M
0K
xG
0B
01
03
05
07
09
#225000
1!
1A
0:
#240000
0!
0A
1:
0H
xb
0X
xS
xQ
xO
xM
xK
0G
1B
x1
x3
x5
x7
x9
#255000
1!
1A
0:
#270000
0!
0A
1:
1H
1b
xX
0S
0Q
0O
0M
0K
xG
0B
01
03
05
07
09
#285000
1!
1A
0:
#300000
0!
0A
1:
0H
xb
0X
xS
xQ
xO
xM
xK
0G
1B
x1
x3
x5
x7
x9
#315000
1!
1A
0:
#330000
0!
0A
1:
1H
1b
xX
0S
0Q
0O
0M
0K
xG
0B
01
03
05
07
09
#345000
1!
1A
0:
#360000
0!
0A
1:
0H
xb
0X
xS
xQ
xO
xM
xK
0G
1B
x1
x3
x5
x7
x9
#375000
1!
1A
0:
#390000
0!
0A
1:
1H
1b
xX
0S
0Q
0O
0M
0K
xG
0B
01
03
05
07
09
#405000
1!
1A
0:
#420000
0!
0A
1:
0H
xb
0X
xS
xQ
xO
xM
xK
0G
1B
x1
x3
x5
x7
x9
#435000
1!
1A
0:
#450000
0!
0A
1:
1H
1b
xX
0S
0Q
0O
0M
0K
xG
0B
01
03
05
07
09
#465000
1!
1A
0:
#480000
0!
0A
1:
0H
xb
0X
xS
xQ
xO
xM
xK
0G
1B
x1
x3
x5
x7
x9
#495000
1!
1A
0:
#510000
0!
0A
1:
1H
1b
xX
0S
0Q
0O
0M
0K
xG
0B
01
03
05
07
09
#525000
1!
1A
0:
#540000
0!
0A
1:
0H
xb
0X
xS
xQ
xO
xM
xK
0G
1B
x1
x3
x5
x7
x9
#555000
1!
1A
0:
#570000
0!
0A
1:
1H
1b
xX
0S
0Q
0O
0M
0K
xG
0B
01
03
05
07
09
#585000
1!
1A
0:
#600000
0!
0A
1:
0H
xb
0X
xS
xQ
xO
xM
xK
0G
1B
x1
x3
x5
x7
x9
#615000
1!
1A
0:
#630000
0!
0A
1:
1H
1b
xX
0S
0Q
0O
0M
0K
xG
0B
01
03
05
07
09
#645000
1!
1A
0:
#660000
0!
0A
1:
0H
xb
0X
xS
xQ
xO
xM
xK
0G
1B
x1
x3
x5
x7
x9
#675000
1!
1A
0:
#690000
0!
0A
1:
1H
1b
xX
0S
0Q
0O
0M
0K
xG
0B
01
03
05
07
09
#705000
1!
1A
0:
#720000
0!
0A
1:
0H
xb
0X
xS
xQ
xO
xM
xK
0G
1B
x1
x3
x5
x7
x9
#735000
1!
1A
0:
#750000
0!
0A
1:
1H
1b
xX
0S
0Q
0O
0M
0K
xG
0B
01
03
05
07
09
#765000
1!
1A
0:
#780000
0!
0A
1:
0H
xb
0X
xS
xQ
xO
xM
xK
0G
1B
x1
x3
x5
x7
x9
#795000
1!
1A
0:
#810000
0!
0A
1:
1H
1b
xX
0S
0Q
0O
0M
0K
xG
0B
01
03
05
07
09
#825000
1!
1A
0:
#840000
0!
0A
1:
0H
xb
0X
xS
xQ
xO
xM
xK
0G
1B
x1
x3
x5
x7
x9
#855000
1!
1A
0:
#870000
0!
0A
1:
1H
1b
xX
0S
0Q
0O
0M
0K
xG
0B
01
03
05
07
09
#885000
1!
1A
0:
#900000
0!
0A
1:
0H
xb
0X
xS
xQ
xO
xM
xK
0G
1B
x1
x3
x5
x7
x9
#915000
1!
1A
0:
#930000
0!
0A
1:
1H
1b
xX
0S
0Q
0O
0M
0K
xG
0B
01
03
05
07
09
#945000
1!
1A
0:
#960000
0!
0A
1:
0H
xb
0X
xS
xQ
xO
xM
xK
0G
1B
x1
x3
x5
x7
x9
#975000
1!
1A
0:
#990000
0!
0A
1:
1H
1b
xX
0S
0Q
0O
0M
0K
xG
0B
01
03
05
07
09
